
{"total":17,"per_page":15,"current_page":1,"last_page":2,"next_page_url":"http:\/\/default-environment-7p45veqn6g.elasticbeanstalk.com\/api\/feed?page=2","prev_page_url":null,"from":1,"to":15,"data":[{"id":830,"image_url":"https:\/\/s3-eu-west-1.amazonaws.com\/fiatappfeeds\/images\/ApppliTeam2\/dt1oxa77bcrexy4kayg9.jpg","comment":null,"user_id":3,"event_id":3,"active":null,"created_at":"2016-07-22 14:16:32","updated_at":"2016-07-22 14:16:32","userLiked":true,"user":{"id":3,"first_name":"Ross","last_name":"Feehan","email":"ross@apppli.com","username":"rostaboss","phone_number":null,"role":"admin","active":null},"likes_count":[{"image_id":830,"likes":1}],"comments_count":[]},{"id":829,"image_url":"https:\/\/s3-eu-west-1.amazonaws.com\/fiatappfeeds\/images\/ApppliTeam2\/dtyqjl31i4iat297wfai.jpg","comment":"Hard at work","user_id":3,"event_id":3,"active":null,"created_at":"2016-07-22 14:15:45","updated_at":"2016-07-22 14:15:45","userLiked":true,"user":{"id":3,"first_name":"Ross","last_name":"Feehan","email":"ross@apppli.com","username":"rostaboss","phone_number":null,"role":"admin","active":null},"likes_count":[{"image_id":829,"likes":1}],"comments_count":[]},{"id":828,"image_url":"https:\/\/s3-eu-west-1.amazonaws.com\/fiatappfeeds\/images\/ApppliTeam2\/ccdbogx8yve6ijf1it24.jpg","comment":"Star wars V Superman","user_id":3,"event_id":3,"active":null,"created_at":"2016-07-22 14:14:56","updated_at":"2016-07-22 14:14:56","userLiked":true,"user":{"id":3,"first_name":"Ross","last_name":"Feehan","email":"ross@apppli.com","username":"rostaboss","phone_number":null,"role":"admin","active":null},"likes_count":[{"image_id":828,"likes":1}],"comments_count":[{"image_id":828,"comments":1}]},{"id":827,"image_url":"https:\/\/s3-eu-west-1.amazonaws.com\/fiatappfeeds\/images\/ApppliTeam2\/z7o270m4gr5gfi80ntx3.jpg","comment":null,"user_id":3,"event_id":3,"active":null,"created_at":"2016-07-22 14:13:30","updated_at":"2016-07-22 14:13:30","userLiked":false,"user":{"id":3,"first_name":"Ross","last_name":"Feehan","email":"ross@apppli.com","username":"rostaboss","phone_number":null,"role":"admin","active":null},"likes_count":[],"comments_count":[]},{"id":826,"image_url":"https:\/\/s3-eu-west-1.amazonaws.com\/fiatappfeeds\/images\/ApppliTeam2\/wmw1z3zdh2pttph2jx2f.jpg","comment":"Our new fish ","user_id":3,"event_id":3,"active":null,"created_at":"2016-07-22 14:12:52","updated_at":"2016-07-22 14:12:52","userLiked":false,"user":{"id":3,"first_name":"Ross","last_name":"Feehan","email":"ross@apppli.com","username":"rostaboss","phone_number":null,"role":"admin","active":null},"likes_count":[],"comments_count":[]},{"id":825,"image_url":"https:\/\/s3-eu-west-1.amazonaws.com\/fiatappfeeds\/images\/ApppliTeam2\/c0fo091nctatqjoag7yc.jpg","comment":"Four.","user_id":3,"event_id":3,"active":null,"created_at":"2016-07-21 18:08:05","updated_at":"2016-07-21 18:08:05","userLiked":true,"user":{"id":3,"first_name":"Ross","last_name":"Feehan","email":"ross@apppli.com","username":"rostaboss","phone_number":null,"role":"admin","active":null},"likes_count":[{"image_id":825,"likes":1}],"comments_count":[]},{"id":824,"image_url":"https:\/\/s3-eu-west-1.amazonaws.com\/fiatappfeeds\/images\/ApppliTeam2\/jijehr3ygy8ng6qoq9d7.jpg","comment":"Four.","user_id":3,"event_id":3,"active":null,"created_at":"2016-07-21 18:08:04","updated_at":"2016-07-21 18:08:04","userLiked":false,"user":{"id":3,"first_name":"Ross","last_name":"Feehan","email":"ross@apppli.com","username":"rostaboss","phone_number":null,"role":"admin","active":null},"likes_count":[],"comments_count":[]},{"id":823,"image_url":"https:\/\/s3-eu-west-1.amazonaws.com\/fiatappfeeds\/images\/ApppliTeam2\/qvmrygf3bh37v9edobsm.jpg","comment":"Four.","user_id":3,"event_id":3,"active":null,"created_at":"2016-07-21 18:08:02","updated_at":"2016-07-21 18:08:02","userLiked":false,"user":{"id":3,"first_name":"Ross","last_name":"Feehan","email":"ross@apppli.com","username":"rostaboss","phone_number":null,"role":"admin","active":null},"likes_count":[],"comments_count":[]},{"id":152,"image_url":"https:\/\/s3-eu-west-1.amazonaws.com\/fiatappfeeds\/images\/ApppliTeam2\/5a0mr07knlqltqphx84g.jpg","comment":"cool chair","user_id":25,"event_id":3,"active":null,"created_at":"2016-03-07 17:40:43","updated_at":"2016-03-07 17:40:43","userLiked":true,"user":{"id":25,"first_name":"Mike","last_name":"James","email":"mo@apppli.com","username":"mikejames","phone_number":null,"role":"admin","active":null},"likes_count":[{"image_id":152,"likes":2}],"comments_count":[{"image_id":152,"comments":1}]},{"id":151,"image_url":"https:\/\/s3-eu-west-1.amazonaws.com\/fiatappfeeds\/images\/ApppliTeam2\/87ietj8zs4055afat6wj.jpg","comment":"quality image ","user_id":25,"event_id":3,"active":null,"created_at":"2016-03-07 17:40:23","updated_at":"2016-03-07 17:40:23","userLiked":true,"user":{"id":25,"first_name":"Mike","last_name":"James","email":"mo@apppli.com","username":"mikejames","phone_number":null,"role":"admin","active":null},"likes_count":[{"image_id":151,"likes":1}],"comments_count":[{"image_id":151,"comments":1}]},{"id":150,"image_url":"https:\/\/s3-eu-west-1.amazonaws.com\/fiatappfeeds\/images\/ApppliTeam2\/tvvuv7bb2ml3r2dwda74.jpg","comment":null,"user_id":25,"event_id":3,"active":null,"created_at":"2016-03-07 17:38:59","updated_at":"2016-03-07 17:38:59","userLiked":true,"user":{"id":25,"first_name":"Mike","last_name":"James","email":"mo@apppli.com","username":"mikejames","phone_number":null,"role":"admin","active":null},"likes_count":[{"image_id":150,"likes":1}],"comments_count":[]},{"id":149,"image_url":"https:\/\/s3-eu-west-1.amazonaws.com\/fiatappfeeds\/images\/ApppliTeam2\/8qpqxi17j1ka6w8zuwdp.jpg","comment":"hi alll","user_id":25,"event_id":3,"active":null,"created_at":"2016-03-07 17:38:31","updated_at":"2016-03-07 17:38:31","userLiked":true,"user":{"id":25,"first_name":"Mike","last_name":"James","email":"mo@apppli.com","username":"mikejames","phone_number":null,"role":"admin","active":null},"likes_count":[{"image_id":149,"likes":1}],"comments_count":[]},{"id":148,"image_url":"https:\/\/s3-eu-west-1.amazonaws.com\/fiatappfeeds\/images\/ApppliTeam2\/vcjgowl61eemm76dlzdz.jpg","comment":null,"user_id":25,"event_id":3,"active":null,"created_at":"2016-03-07 17:36:38","updated_at":"2016-03-07 17:36:38","userLiked":false,"user":{"id":25,"first_name":"Mike","last_name":"James","email":"mo@apppli.com","username":"mikejames","phone_number":null,"role":"admin","active":null},"likes_count":[],"comments_count":[]},{"id":147,"image_url":"https:\/\/s3-eu-west-1.amazonaws.com\/fiatappfeeds\/images\/ApppliTeam2\/fezih5hzsk8c2p60ssdy.jpg","comment":null,"user_id":1,"event_id":3,"active":null,"created_at":"2016-03-07 17:33:26","updated_at":"2016-03-07 17:33:26","userLiked":false,"user":{"id":1,"first_name":null,"last_name":null,"email":"sarah@apppli.com","username":"sarah","phone_number":null,"role":"admin","active":"1"},"likes_count":[],"comments_count":[]},{"id":146,"image_url":"https:\/\/s3-eu-west-1.amazonaws.com\/fiatappfeeds\/images\/ApppliTeam2\/v6z59nvgjov6qekpgdfx.jpg","comment":null,"user_id":1,"event_id":3,"active":null,"created_at":"2016-03-07 17:32:10","updated_at":"2016-03-07 17:32:10","userLiked":false,"user":{"id":1,"first_name":null,"last_name":null,"email":"sarah@apppli.com","username":"sarah","phone_number":null,"role":"admin","active":"1"},"likes_count":[],"comments_count":[{"image_id":146,"comments":1}]}]}